{
  "packages": [
    {
      "name": "avlduino",
      "maintainer": "AVL",
      "websiteURL": "http://www.avl.com/",
      "email": "marton.kovacs@avl.com",

      "platforms": [
	    {
          "name": "AVLduino",
          "architecture": "avr",
          "version": "1.0.3",
          "category": "Contributed",
          "help": {
            "online": "https://gitlab.com/kovacsmarc/avlduino_bsp"
          },
          "url": "https://gitlab.com/kovacsmarc/avlduino_bsp/-/archive/v1.0.3/avlduino_bsp-v1.0.3.zip",
          "archiveFileName": "avlduino_bsp-v1.0.3.zip",
          "checksum": "SHA-256:dd5caf85daffc73b1bb28468d31ef3da726d5b2365835e8d0631e00d18af4c01",
          "size": "10765",
          "boards": [
            {"name": "AVLduino"}
          ],
          "toolsDependencies": []
        },
		{
          "name": "AVLduino",
          "architecture": "avr",
          "version": "1.0.2",
          "category": "Contributed",
          "help": {
            "online": "https://gitlab.com/kovacsmarc/avlduino_bsp"
          },
          "url": "https://gitlab.com/kovacsmarc/avlduino_bsp/-/archive/v1.0.2/avlduino_bsp-v1.0.2.zip",
          "archiveFileName": "avlduino_bsp-v1.0.2.zip",
          "checksum": "SHA-256:d39fe874d54c0c0a3f6c789ef6c5c2d3a82dec2a0ece5c836a387f511f5f5f1e",
          "size": "11421",
          "boards": [
            {"name": "AVLduino"}
          ],
          "toolsDependencies": []
        },
        {
          "name": "AVLduino",
          "architecture": "avr",
          "version": "1.0.1",
          "category": "Contributed",
          "help": {
            "online": "https://gitlab.com/kovacsmarc/avlduino_bsp"
          },
          "url": "https://gitlab.com/kovacsmarc/avlduino_bsp/-/archive/v1.0.1/avlduino_bsp-v1.0.1.zip",
          "archiveFileName": "avlduino_bsp-v1.0.1.zip",
          "checksum": "SHA-256:3b2dfb9da03718ea9461aff6b903eb3e3abdf04c243e97c7263f4107dd2f9664",
          "size": "10356",
          "boards": [
            {"name": "AVLduino"}
          ],
          "toolsDependencies": []
        }  
      ],

      "tools": []
    }
  ]
}
